\relax 
\providecommand\hyper@newdestlabel[2]{}
\providecommand\HyperFirstAtBeginDocument{\AtBeginDocument}
\HyperFirstAtBeginDocument{\ifx\hyper@anchor\@undefined
\global\let\oldcontentsline\contentsline
\gdef\contentsline#1#2#3#4{\oldcontentsline{#1}{#2}{#3}}
\global\let\oldnewlabel\newlabel
\gdef\newlabel#1#2{\newlabelxx{#1}#2}
\gdef\newlabelxx#1#2#3#4#5#6{\oldnewlabel{#1}{{#2}{#3}}}
\AtEndDocument{\ifx\hyper@anchor\@undefined
\let\contentsline\oldcontentsline
\let\newlabel\oldnewlabel
\fi}
\fi}
\global\let\hyper@last\relax 
\gdef\HyperFirstAtBeginDocument#1{#1}
\providecommand\HyField@AuxAddToFields[1]{}
\providecommand\HyField@AuxAddToCoFields[2]{}
\citation{tripartite}
\citation{shuffle}
\@writefile{toc}{\contentsline {section}{\numberline {1}Introduction}{4}{section.1}}
\@writefile{toc}{\contentsline {section}{\numberline {2}Mathematical preliminaries}{5}{section.2}}
\@writefile{toc}{\contentsline {subsection}{\numberline {2.1}Groups}{5}{subsection.2.1}}
\@writefile{toc}{\contentsline {subsection}{\numberline {2.2}Rings and fields}{5}{subsection.2.2}}
\@writefile{toc}{\contentsline {subsection}{\numberline {2.3}Field extensions}{5}{subsection.2.3}}
\citation{castello}
\@writefile{toc}{\contentsline {section}{\numberline {3}Elliptic curves}{6}{section.3}}
\@writefile{toc}{\contentsline {subsection}{\numberline {3.1}Overview}{6}{subsection.3.1}}
\newlabel{eq:1}{{1}{6}{Overview}{equation.3.1}{}}
\providecommand*\caption@xref[2]{\@setref\relax\@undefined{#1}}
\newlabel{fig:1:1}{{1a}{6}{A curve $ y^2 = x^3 - x $ over $ \mathbb {R} $\relax }{figure.caption.2}{}}
\newlabel{sub@fig:1:1}{{a}{6}{A curve $ y^2 = x^3 - x $ over $ \mathbb {R} $\relax }{figure.caption.2}{}}
\newlabel{fig:1:2}{{1b}{6}{The same curve $ y^2 = x^3 - x $ over $ \mathbb {F}_{11} $\relax }{figure.caption.2}{}}
\newlabel{sub@fig:1:2}{{b}{6}{The same curve $ y^2 = x^3 - x $ over $ \mathbb {F}_{11} $\relax }{figure.caption.2}{}}
\@writefile{lof}{\contentsline {figure}{\numberline {1}{\ignorespaces Sample elliptic curves\relax }}{6}{figure.caption.2}}
\newlabel{fig:1}{{1}{6}{Sample elliptic curves\relax }{figure.caption.2}{}}
\@writefile{toc}{\contentsline {subsection}{\numberline {3.2}The group law}{6}{subsection.3.2}}
\citation{castello}
\newlabel{eq:3}{{2}{7}{The group law}{equation.3.2}{}}
\newlabel{eq:4}{{3}{7}{The group law}{equation.3.3}{}}
\@writefile{lof}{\contentsline {figure}{\numberline {2}{\ignorespaces The chord-and-tagent rule $\relax }}{7}{figure.caption.3}}
\newlabel{fig:2}{{2}{7}{The chord-and-tagent rule $\relax }{figure.caption.3}{}}
\citation{schoof}
\@writefile{toc}{\contentsline {subsubsection}{\numberline {3.2.1}Explicit formulas}{8}{subsubsection.3.2.1}}
\@writefile{toc}{\contentsline {subsection}{\numberline {3.3}Pairing-friendly curves}{8}{subsection.3.3}}
\@writefile{toc}{\contentsline {section}{\numberline {4}Bilinear pairings}{9}{section.4}}
\@writefile{toc}{\contentsline {subsection}{\numberline {4.1}Overview}{9}{subsection.4.1}}
\@writefile{toc}{\contentsline {subsection}{\numberline {4.2}The ate pairing}{9}{subsection.4.2}}
\@writefile{toc}{\contentsline {subsection}{\numberline {4.3}Miller functions, algorithm for ate}{9}{subsection.4.3}}
\@writefile{toc}{\contentsline {subsection}{\numberline {4.4}Optimisations}{9}{subsection.4.4}}
\@writefile{toc}{\contentsline {section}{\numberline {5}Parallel computing model for pairings}{10}{section.5}}
\@writefile{toc}{\contentsline {subsection}{\numberline {5.1}OpenCL}{10}{subsection.5.1}}
\@writefile{toc}{\contentsline {subsection}{\numberline {5.2}Algorithms}{10}{subsection.5.2}}
\@writefile{toc}{\contentsline {subsection}{\numberline {5.3}Proposed parallel algorithm}{10}{subsection.5.3}}
\@writefile{toc}{\contentsline {section}{\numberline {6}Conclusion}{11}{section.6}}
\bibstyle{alpha}
\bibdata{bachelor-thesis}
\bibcite{castello}{Cos12}
\bibcite{shuffle}{FLZ16}
\bibcite{tripartite}{Jou00}
\bibcite{schoof}{Sch85}
\@writefile{toc}{\contentsline {section}{References}{12}{section*.4}}
\@writefile{toc}{\contentsline {section}{Appendix}{13}{section*.5}}
\@writefile{toc}{\contentsline {subsection}{I. Glossary}{13}{section*.6}}
\@writefile{toc}{\contentsline {subsection}{II. Licence}{14}{section*.7}}
